

================================================================
== Vitis HLS Report for 'AXIvideo2xfMat_8_0_128_128_1_1_Pipeline_loop_col_zxi2mat'
================================================================
* Date:           Wed Feb  1 09:20:43 2023

* Version:        2022.2 (Build 3670227 on Oct 13 2022)
* Project:        dilation.prj
* Solution:       sol1 (Vivado IP Flow Target)
* Product family: zynquplus
* Target device:  xczu9eg-ffvb1156-2-i


================================================================
== Performance Estimates
================================================================
+ Timing: 
    * Summary: 
    +--------+---------+----------+------------+
    |  Clock |  Target | Estimated| Uncertainty|
    +--------+---------+----------+------------+
    |ap_clk  |  3.30 ns|  1.276 ns|     0.89 ns|
    +--------+---------+----------+------------+

+ Latency: 
    * Summary: 
    +---------+---------+----------+----------+-----+-----+---------+
    |  Latency (cycles) |  Latency (absolute) |  Interval | Pipeline|
    |   min   |   max   |    min   |    max   | min | max |   Type  |
    +---------+---------+----------+----------+-----+-----+---------+
    |        3|      130|  9.900 ns|  0.429 us|    3|  130|       no|
    +---------+---------+----------+----------+-----+-----+---------+

    + Detail: 
        * Instance: 
        N/A

        * Loop: 
        +--------------------+---------+---------+----------+-----------+-----------+---------+----------+
        |                    |  Latency (cycles) | Iteration|  Initiation Interval  |   Trip  |          |
        |      Loop Name     |   min   |   max   |  Latency |  achieved |   target  |  Count  | Pipelined|
        +--------------------+---------+---------+----------+-----------+-----------+---------+----------+
        |- loop_col_zxi2mat  |        1|      128|         2|          1|          1|  1 ~ 128|       yes|
        +--------------------+---------+---------+----------+-----------+-----------+---------+----------+

============================================================
+ Verbose Summary: Synthesis Manager
============================================================
InlineROM: 1
ExposeGlobal: 0
============================================================
+ Verbose Summary: CDFG Model
============================================================
IsTopModel: 0
ResetActiveHigh: 1
IsCombinational: 0
IsDatapathOnly: 0
HasWiredReturn: 1
HasMFsm: 2
HasVarLatency: 1
IsPipeline: 0
IsRtlPipelined: 0
IsInstanceOverlapped: 0
IsDontTouch: 0
HasImplIP: 0
IsGatedGlobalClock: 0

+ Individual pipeline summary: 
  * Pipeline-0: initiation interval (II) = 1, depth = 2


============================================================
+ Verbose Summary: Schedule
============================================================
* Number of FSM states : 2
* Pipeline : 1
  Pipeline-0 : II = 1, D = 2, States = { 1 2 }
* Dataflow Pipeline: 0

* FSM state transitions: 
1 --> 2 
2 --> 

* FSM state operations: 

State 1 <SV = 0> <Delay = 1.27>
ST_1 : Operation 5 [1/1] (0.00ns)   --->   "%j = alloca i32 1"   --->   Operation 5 'alloca' 'j' <Predicate = true> <Delay = 0.00>
ST_1 : Operation 6 [1/1] (0.00ns)   --->   "%axi_last_V = alloca i32 1"   --->   Operation 6 'alloca' 'axi_last_V' <Predicate = true> <Delay = 0.00>
ST_1 : Operation 7 [1/1] (0.00ns)   --->   "%axi_data_V = alloca i32 1"   --->   Operation 7 'alloca' 'axi_data_V' <Predicate = true> <Delay = 0.00>
ST_1 : Operation 8 [1/1] (0.00ns)   --->   "%specaxissidechannel_ln0 = specaxissidechannel void @_ssdm_op_SpecAXISSideChannel, i8 %src_V_data_V, i1 %src_V_keep_V, i1 %src_V_strb_V, i1 %src_V_user_V, i1 %src_V_last_V, i1 %src_V_id_V, i1 %src_V_dest_V, void @empty_1"   --->   Operation 8 'specaxissidechannel' 'specaxissidechannel_ln0' <Predicate = true> <Delay = 0.00>
ST_1 : Operation 9 [1/1] (0.00ns)   --->   "%specinterface_ln0 = specinterface void @_ssdm_op_SpecInterface, i8 %src_V_data_V, void @empty_2, i32 0, i32 0, void @empty_3, i32 0, i32 0, void @empty_4, void @empty_4, void @empty_4, i32 0, i32 0, i32 0, i32 0, void @empty_4, void @empty_4, i32 4294967295, i32 0"   --->   Operation 9 'specinterface' 'specinterface_ln0' <Predicate = true> <Delay = 0.00>
ST_1 : Operation 10 [1/1] (0.00ns)   --->   "%specinterface_ln0 = specinterface void @_ssdm_op_SpecInterface, i1 %src_V_keep_V, void @empty_2, i32 0, i32 0, void @empty_3, i32 0, i32 0, void @empty_4, void @empty_4, void @empty_4, i32 0, i32 0, i32 0, i32 0, void @empty_4, void @empty_4, i32 4294967295, i32 0"   --->   Operation 10 'specinterface' 'specinterface_ln0' <Predicate = true> <Delay = 0.00>
ST_1 : Operation 11 [1/1] (0.00ns)   --->   "%specinterface_ln0 = specinterface void @_ssdm_op_SpecInterface, i1 %src_V_strb_V, void @empty_2, i32 0, i32 0, void @empty_3, i32 0, i32 0, void @empty_4, void @empty_4, void @empty_4, i32 0, i32 0, i32 0, i32 0, void @empty_4, void @empty_4, i32 4294967295, i32 0"   --->   Operation 11 'specinterface' 'specinterface_ln0' <Predicate = true> <Delay = 0.00>
ST_1 : Operation 12 [1/1] (0.00ns)   --->   "%specinterface_ln0 = specinterface void @_ssdm_op_SpecInterface, i1 %src_V_user_V, void @empty_2, i32 0, i32 0, void @empty_3, i32 0, i32 0, void @empty_4, void @empty_4, void @empty_4, i32 0, i32 0, i32 0, i32 0, void @empty_4, void @empty_4, i32 4294967295, i32 0"   --->   Operation 12 'specinterface' 'specinterface_ln0' <Predicate = true> <Delay = 0.00>
ST_1 : Operation 13 [1/1] (0.00ns)   --->   "%specinterface_ln0 = specinterface void @_ssdm_op_SpecInterface, i1 %src_V_last_V, void @empty_2, i32 0, i32 0, void @empty_3, i32 0, i32 0, void @empty_4, void @empty_4, void @empty_4, i32 0, i32 0, i32 0, i32 0, void @empty_4, void @empty_4, i32 4294967295, i32 0"   --->   Operation 13 'specinterface' 'specinterface_ln0' <Predicate = true> <Delay = 0.00>
ST_1 : Operation 14 [1/1] (0.00ns)   --->   "%specinterface_ln0 = specinterface void @_ssdm_op_SpecInterface, i1 %src_V_id_V, void @empty_2, i32 0, i32 0, void @empty_3, i32 0, i32 0, void @empty_4, void @empty_4, void @empty_4, i32 0, i32 0, i32 0, i32 0, void @empty_4, void @empty_4, i32 4294967295, i32 0"   --->   Operation 14 'specinterface' 'specinterface_ln0' <Predicate = true> <Delay = 0.00>
ST_1 : Operation 15 [1/1] (0.00ns)   --->   "%specinterface_ln0 = specinterface void @_ssdm_op_SpecInterface, i1 %src_V_dest_V, void @empty_2, i32 0, i32 0, void @empty_3, i32 0, i32 0, void @empty_4, void @empty_4, void @empty_4, i32 0, i32 0, i32 0, i32 0, void @empty_4, void @empty_4, i32 4294967295, i32 0"   --->   Operation 15 'specinterface' 'specinterface_ln0' <Predicate = true> <Delay = 0.00>
ST_1 : Operation 16 [1/1] (0.00ns)   --->   "%specinterface_ln0 = specinterface void @_ssdm_op_SpecInterface, i8 %in_mat_data24, void @empty_23, i32 0, i32 0, void @empty_4, i32 0, i32 0, void @empty_4, void @empty_4, void @empty_4, i32 0, i32 0, i32 0, i32 0, void @empty_4, void @empty_4, i32 4294967295, i32 0"   --->   Operation 16 'specinterface' 'specinterface_ln0' <Predicate = true> <Delay = 0.00>
ST_1 : Operation 17 [1/1] (0.00ns)   --->   "%p_read = read i8 @_ssdm_op_Read.ap_auto.i8, i8 %p_read1"   --->   Operation 17 'read' 'p_read' <Predicate = true> <Delay = 0.00>
ST_1 : Operation 18 [1/1] (0.00ns)   --->   "%axi_last_V_2_read = read i1 @_ssdm_op_Read.ap_auto.i1, i1 %axi_last_V_2"   --->   Operation 18 'read' 'axi_last_V_2_read' <Predicate = true> <Delay = 0.00>
ST_1 : Operation 19 [1/1] (0.00ns)   --->   "%axi_data_V_2_read = read i8 @_ssdm_op_Read.ap_auto.i8, i8 %axi_data_V_2"   --->   Operation 19 'read' 'axi_data_V_2_read' <Predicate = true> <Delay = 0.00>
ST_1 : Operation 20 [1/1] (0.00ns)   --->   "%start_2_read = read i1 @_ssdm_op_Read.ap_auto.i1, i1 %start_2"   --->   Operation 20 'read' 'start_2_read' <Predicate = true> <Delay = 0.00>
ST_1 : Operation 21 [1/1] (0.42ns)   --->   "%store_ln0 = store i8 %axi_data_V_2_read, i8 %axi_data_V"   --->   Operation 21 'store' 'store_ln0' <Predicate = true> <Delay = 0.42>
ST_1 : Operation 22 [1/1] (0.42ns)   --->   "%store_ln0 = store i1 %axi_last_V_2_read, i1 %axi_last_V"   --->   Operation 22 'store' 'store_ln0' <Predicate = true> <Delay = 0.42>
ST_1 : Operation 23 [1/1] (0.42ns)   --->   "%store_ln0 = store i8 0, i8 %j"   --->   Operation 23 'store' 'store_ln0' <Predicate = true> <Delay = 0.42>
ST_1 : Operation 24 [1/1] (0.42ns)   --->   "%br_ln0 = br void %for.body10"   --->   Operation 24 'br' 'br_ln0' <Predicate = true> <Delay = 0.42>
ST_1 : Operation 25 [1/1] (0.00ns)   --->   "%last = phi i1 %axi_last_V_5, void %if.end15, i1 0, void %newFuncRoot"   --->   Operation 25 'phi' 'last' <Predicate = true> <Delay = 0.00>
ST_1 : Operation 26 [1/1] (0.00ns)   --->   "%start = phi i1 0, void %if.end15, i1 %start_2_read, void %newFuncRoot"   --->   Operation 26 'phi' 'start' <Predicate = true> <Delay = 0.00>
ST_1 : Operation 27 [1/1] (0.00ns)   --->   "%j_3 = load i8 %j" [/home/dhimiter.qendri/work/Vitis_Libraries/vision//L1/include/common/xf_infra.hpp:133]   --->   Operation 27 'load' 'j_3' <Predicate = true> <Delay = 0.00>
ST_1 : Operation 28 [1/1] (0.84ns)   --->   "%icmp_ln133 = icmp_eq  i8 %j_3, i8 %p_read" [/home/dhimiter.qendri/work/Vitis_Libraries/vision//L1/include/common/xf_infra.hpp:133]   --->   Operation 28 'icmp' 'icmp_ln133' <Predicate = true> <Delay = 0.84> <CoreInst = "Cmp">   --->   Core 9 'Cmp' <Latency = 0> <II = 1> <Delay = 0.84> <FuncUnit> <Opcode : 'icmp'> <InPorts = 2> <OutPorts = 1>
ST_1 : Operation 29 [1/1] (0.00ns)   --->   "%speclooptripcount_ln0 = speclooptripcount void @_ssdm_op_SpecLoopTripCount, i64 1, i64 128, i64 0"   --->   Operation 29 'speclooptripcount' 'speclooptripcount_ln0' <Predicate = true> <Delay = 0.00>
ST_1 : Operation 30 [1/1] (0.76ns)   --->   "%j_4 = add i8 %j_3, i8 1" [/home/dhimiter.qendri/work/Vitis_Libraries/vision//L1/include/common/xf_infra.hpp:133]   --->   Operation 30 'add' 'j_4' <Predicate = true> <Delay = 0.76> <CoreInst = "Adder">   --->   Core 1 'Adder' <Latency = 0> <II = 1> <Delay = 0.76> <FuncUnit> <Opcode : 'add' 'sub'> <InPorts = 2> <OutPorts = 1>
ST_1 : Operation 31 [1/1] (0.00ns)   --->   "%br_ln133 = br i1 %icmp_ln133, void %for.body10.split, void %loop_last_hunt.loopexit.exitStub" [/home/dhimiter.qendri/work/Vitis_Libraries/vision//L1/include/common/xf_infra.hpp:133]   --->   Operation 31 'br' 'br_ln133' <Predicate = true> <Delay = 0.00>
ST_1 : Operation 32 [1/1] (0.00ns)   --->   "%specpipeline_ln136 = specpipeline void @_ssdm_op_SpecPipeline, i32 1, i32 0, i32 0, i32 0, void @empty_4" [/home/dhimiter.qendri/work/Vitis_Libraries/vision//L1/include/common/xf_infra.hpp:136]   --->   Operation 32 'specpipeline' 'specpipeline_ln136' <Predicate = (!icmp_ln133)> <Delay = 0.00>
ST_1 : Operation 33 [1/1] (0.00ns)   --->   "%specloopname_ln102 = specloopname void @_ssdm_op_SpecLoopName, void @empty_19" [/home/dhimiter.qendri/work/Vitis_Libraries/vision//L1/include/common/xf_infra.hpp:102]   --->   Operation 33 'specloopname' 'specloopname_ln102' <Predicate = (!icmp_ln133)> <Delay = 0.00>
ST_1 : Operation 34 [1/1] (0.28ns)   --->   "%or_ln139 = or i1 %start, i1 %last" [/home/dhimiter.qendri/work/Vitis_Libraries/vision//L1/include/common/xf_infra.hpp:139]   --->   Operation 34 'or' 'or_ln139' <Predicate = (!icmp_ln133)> <Delay = 0.28> <CoreInst = "LogicGate">   --->   Core 74 'LogicGate' <Latency = 0> <II = 1> <Delay = 0.28> <FuncUnit> <Opcode : 'and' 'or' 'xor'> <InPorts = 2> <OutPorts = 1>
ST_1 : Operation 35 [1/1] (0.00ns)   --->   "%br_ln139 = br i1 %or_ln139, void %if.else, void %if.end15" [/home/dhimiter.qendri/work/Vitis_Libraries/vision//L1/include/common/xf_infra.hpp:139]   --->   Operation 35 'br' 'br_ln139' <Predicate = (!icmp_ln133)> <Delay = 0.00>
ST_1 : Operation 36 [1/1] (0.00ns)   --->   "%empty = read i14 @_ssdm_op_Read.axis.volatile.i8P0A.i1P0A.i1P0A.i1P0A.i1P0A.i1P0A.i1P0A, i8 %src_V_data_V, i1 %src_V_keep_V, i1 %src_V_strb_V, i1 %src_V_user_V, i1 %src_V_last_V, i1 %src_V_id_V, i1 %src_V_dest_V"   --->   Operation 36 'read' 'empty' <Predicate = (!icmp_ln133 & !or_ln139)> <Delay = 0.00> <CoreInst = "axis">   --->   Core 123 'axis' <Latency = 0> <II = 1> <Delay = 1.00> <Adapter> <Opcode : >
ST_1 : Operation 37 [1/1] (0.00ns)   --->   "%tmp_data_V = extractvalue i14 %empty"   --->   Operation 37 'extractvalue' 'tmp_data_V' <Predicate = (!icmp_ln133 & !or_ln139)> <Delay = 0.00>
ST_1 : Operation 38 [1/1] (0.00ns)   --->   "%tmp_last_V = extractvalue i14 %empty"   --->   Operation 38 'extractvalue' 'tmp_last_V' <Predicate = (!icmp_ln133 & !or_ln139)> <Delay = 0.00>
ST_1 : Operation 39 [1/1] (0.42ns)   --->   "%store_ln237 = store i8 %tmp_data_V, i8 %axi_data_V"   --->   Operation 39 'store' 'store_ln237' <Predicate = (!icmp_ln133 & !or_ln139)> <Delay = 0.42>
ST_1 : Operation 40 [1/1] (0.42ns)   --->   "%store_ln237 = store i1 %tmp_last_V, i1 %axi_last_V"   --->   Operation 40 'store' 'store_ln237' <Predicate = (!icmp_ln133 & !or_ln139)> <Delay = 0.42>
ST_1 : Operation 41 [1/1] (0.00ns)   --->   "%br_ln0 = br void %if.end15"   --->   Operation 41 'br' 'br_ln0' <Predicate = (!icmp_ln133 & !or_ln139)> <Delay = 0.00>
ST_1 : Operation 42 [1/1] (0.42ns)   --->   "%store_ln133 = store i8 %j_4, i8 %j" [/home/dhimiter.qendri/work/Vitis_Libraries/vision//L1/include/common/xf_infra.hpp:133]   --->   Operation 42 'store' 'store_ln133' <Predicate = (!icmp_ln133)> <Delay = 0.42>
ST_1 : Operation 43 [1/1] (0.00ns)   --->   "%br_ln133 = br void %for.body10" [/home/dhimiter.qendri/work/Vitis_Libraries/vision//L1/include/common/xf_infra.hpp:133]   --->   Operation 43 'br' 'br_ln133' <Predicate = (!icmp_ln133)> <Delay = 0.00>
ST_1 : Operation 47 [1/1] (0.00ns)   --->   "%axi_data_V_load = load i8 %axi_data_V"   --->   Operation 47 'load' 'axi_data_V_load' <Predicate = (icmp_ln133)> <Delay = 0.00>
ST_1 : Operation 48 [1/1] (0.00ns)   --->   "%write_ln0 = write void @_ssdm_op_Write.ap_auto.i1P0A, i1 %last_out, i1 %last"   --->   Operation 48 'write' 'write_ln0' <Predicate = (icmp_ln133)> <Delay = 0.00>
ST_1 : Operation 49 [1/1] (0.00ns)   --->   "%write_ln0 = write void @_ssdm_op_Write.ap_auto.i8P0A, i8 %axi_data_V_3_out, i8 %axi_data_V_load"   --->   Operation 49 'write' 'write_ln0' <Predicate = (icmp_ln133)> <Delay = 0.00>
ST_1 : Operation 50 [1/1] (0.00ns)   --->   "%ret_ln0 = ret"   --->   Operation 50 'ret' 'ret_ln0' <Predicate = (icmp_ln133)> <Delay = 0.00>

State 2 <SV = 1> <Delay = 1.20>
ST_2 : Operation 44 [1/1] (0.00ns)   --->   "%axi_last_V_5 = load i1 %axi_last_V"   --->   Operation 44 'load' 'axi_last_V_5' <Predicate = (!icmp_ln133)> <Delay = 0.00>
ST_2 : Operation 45 [1/1] (0.00ns)   --->   "%p_Val2_s = load i8 %axi_data_V" [/home/dhimiter.qendri/work/Vitis_Libraries/vision//L1/include/common/xf_structs.hpp:553]   --->   Operation 45 'load' 'p_Val2_s' <Predicate = (!icmp_ln133)> <Delay = 0.00>
ST_2 : Operation 46 [1/1] (1.20ns)   --->   "%write_ln553 = write void @_ssdm_op_Write.ap_fifo.volatile.i8P0A, i8 %in_mat_data24, i8 %p_Val2_s" [/home/dhimiter.qendri/work/Vitis_Libraries/vision//L1/include/common/xf_structs.hpp:553]   --->   Operation 46 'write' 'write_ln553' <Predicate = (!icmp_ln133)> <Delay = 1.20> <CoreInst = "FIFO_SRL">   --->   Core 81 'FIFO_SRL' <Latency = 0> <II = 1> <Delay = 1.83> <Storage> <Opcode : 'read' 'write' 'nbread' 'nbwrite'> <Ports = 0> <Width = 8> <Depth = 1> <FIFO>


============================================================
+ Verbose Summary: Timing violations
============================================================
Target clock period: 3.3ns, clock uncertainty: 0.891ns.

 <State 1>: 1.28ns
The critical path consists of the following:
	'alloca' operation ('j') [15]  (0 ns)
	'load' operation ('j', /home/dhimiter.qendri/work/Vitis_Libraries/vision//L1/include/common/xf_infra.hpp:133) on local variable 'j' [38]  (0 ns)
	'add' operation ('j', /home/dhimiter.qendri/work/Vitis_Libraries/vision//L1/include/common/xf_infra.hpp:133) [41]  (0.765 ns)
	'store' operation ('store_ln133', /home/dhimiter.qendri/work/Vitis_Libraries/vision//L1/include/common/xf_infra.hpp:133) of variable 'j', /home/dhimiter.qendri/work/Vitis_Libraries/vision//L1/include/common/xf_infra.hpp:133 on local variable 'j' [59]  (0.427 ns)
	blocking operation 0.084 ns on control path)

 <State 2>: 1.2ns
The critical path consists of the following:
	'load' operation ('__Val2__', /home/dhimiter.qendri/work/Vitis_Libraries/vision//L1/include/common/xf_structs.hpp:553) on local variable 'axi.data.V' [57]  (0 ns)
	fifo write operation ('write_ln553', /home/dhimiter.qendri/work/Vitis_Libraries/vision//L1/include/common/xf_structs.hpp:553) on port 'in_mat_data24' (/home/dhimiter.qendri/work/Vitis_Libraries/vision//L1/include/common/xf_structs.hpp:553) [58]  (1.2 ns)


============================================================
+ Verbose Summary: Binding
============================================================
N/A
* FSMD analyzer results:
  - Output states:
 - Input state : 
  - Chain level:
	State 1
	State 2


============================================================
+ Verbose Summary: Datapath Resource usage 
============================================================
N/A
