

================================================================
== Vitis HLS Report for 'xfdilate_128_128_1_0_1_1_1_0_130_5_5_Pipeline_VITIS_LOOP_279_1'
================================================================
* Date:           Wed Feb  1 09:20:45 2023

* Version:        2022.2 (Build 3670227 on Oct 13 2022)
* Project:        dilation.prj
* Solution:       sol1 (Vivado IP Flow Target)
* Product family: zynquplus
* Target device:  xczu9eg-ffvb1156-2-i


================================================================
== Performance Estimates
================================================================
+ Timing: 
    * Summary: 
    +--------+---------+----------+------------+
    |  Clock |  Target | Estimated| Uncertainty|
    +--------+---------+----------+------------+
    |ap_clk  |  3.30 ns|  1.100 ns|     0.89 ns|
    +--------+---------+----------+------------+

+ Latency: 
    * Summary: 
    +---------+---------+-----------+-----------+-----+-----+---------+
    |  Latency (cycles) |   Latency (absolute)  |  Interval | Pipeline|
    |   min   |   max   |    min    |    max    | min | max |   Type  |
    +---------+---------+-----------+-----------+-----+-----+---------+
    |        7|        7|  23.100 ns|  23.100 ns|    7|    7|       no|
    +---------+---------+-----------+-----------+-----+-----+---------+

    + Detail: 
        * Instance: 
        N/A

        * Loop: 
        +--------------------+---------+---------+----------+-----------+-----------+------+----------+
        |                    |  Latency (cycles) | Iteration|  Initiation Interval  | Trip |          |
        |      Loop Name     |   min   |   max   |  Latency |  achieved |   target  | Count| Pipelined|
        +--------------------+---------+---------+----------+-----------+-----------+------+----------+
        |- VITIS_LOOP_279_1  |        5|        5|         1|          1|          1|     5|       yes|
        +--------------------+---------+---------+----------+-----------+-----------+------+----------+



================================================================
== Utilization Estimates
================================================================
* Summary: 
+-----------------+---------+------+--------+--------+-----+
|       Name      | BRAM_18K|  DSP |   FF   |   LUT  | URAM|
+-----------------+---------+------+--------+--------+-----+
|DSP              |        -|     -|       -|       -|    -|
|Expression       |        -|     -|       0|      18|    -|
|FIFO             |        -|     -|       -|       -|    -|
|Instance         |        -|     -|       -|       -|    -|
|Memory           |        -|     -|       -|       -|    -|
|Multiplexer      |        -|     -|       -|      27|    -|
|Register         |        -|     -|      20|       -|    -|
+-----------------+---------+------+--------+--------+-----+
|Total            |        0|     0|      20|      45|    0|
+-----------------+---------+------+--------+--------+-----+
|Available        |     1824|  2520|  548160|  274080|    0|
+-----------------+---------+------+--------+--------+-----+
|Utilization (%)  |        0|     0|      ~0|      ~0|    0|
+-----------------+---------+------+--------+--------+-----+

+ Detail: 
    * Instance: 
    N/A

    * DSP: 
    N/A

    * Memory: 
    N/A

    * FIFO: 
    N/A

    * Expression: 
    +------------------------+----------+----+---+----+------------+------------+
    |      Variable Name     | Operation| DSP| FF| LUT| Bitwidth P0| Bitwidth P1|
    +------------------------+----------+----+---+----+------------+------------+
    |init_row_ind_fu_113_p2  |         +|   0|  0|  10|           3|           1|
    |icmp_ln279_fu_107_p2    |      icmp|   0|  0|   8|           3|           3|
    +------------------------+----------+----+---+----+------------+------------+
    |Total                   |          |   0|  0|  18|           6|           4|
    +------------------------+----------+----+---+----+------------+------------+

    * Multiplexer: 
    +------------------------------+----+-----------+-----+-----------+
    |             Name             | LUT| Input Size| Bits| Total Bits|
    +------------------------------+----+-----------+-----+-----------+
    |ap_done_int                   |   9|          2|    1|          2|
    |ap_sig_allocacmp_row_ind_V_7  |   9|          2|    3|          6|
    |row_ind_V_5_fu_40             |   9|          2|    3|          6|
    +------------------------------+----+-----------+-----+-----------+
    |Total                         |  27|          6|    7|         14|
    +------------------------------+----+-----------+-----+-----------+

    * Register: 
    +-------------------+---+----+-----+-----------+
    |        Name       | FF| LUT| Bits| Const Bits|
    +-------------------+---+----+-----+-----------+
    |ap_CS_fsm          |  1|   0|    1|          0|
    |ap_done_reg        |  1|   0|    1|          0|
    |row_ind_V_1_fu_48  |  3|   0|   13|         10|
    |row_ind_V_2_fu_52  |  3|   0|   13|         10|
    |row_ind_V_3_fu_56  |  3|   0|   13|         10|
    |row_ind_V_4_fu_60  |  3|   0|   13|         10|
    |row_ind_V_5_fu_40  |  3|   0|    3|          0|
    |row_ind_V_fu_44    |  3|   0|   13|         10|
    +-------------------+---+----+-----+-----------+
    |Total              | 20|   0|   70|         50|
    +-------------------+---+----+-----+-----------+



================================================================
== Interface
================================================================
* Summary: 
+------------------------+-----+-----+------------+---------------------------------------------------------------------------+--------------+
|        RTL Ports       | Dir | Bits|  Protocol  |                               Source Object                               |    C Type    |
+------------------------+-----+-----+------------+---------------------------------------------------------------------------+--------------+
|ap_clk                  |   in|    1|  ap_ctrl_hs|  xfdilate<128, 128, 1, 0, 1, 1, 1, 0, 130, 5, 5>_Pipeline_VITIS_LOOP_279_1|  return value|
|ap_rst                  |   in|    1|  ap_ctrl_hs|  xfdilate<128, 128, 1, 0, 1, 1, 1, 0, 130, 5, 5>_Pipeline_VITIS_LOOP_279_1|  return value|
|ap_start                |   in|    1|  ap_ctrl_hs|  xfdilate<128, 128, 1, 0, 1, 1, 1, 0, 130, 5, 5>_Pipeline_VITIS_LOOP_279_1|  return value|
|ap_done                 |  out|    1|  ap_ctrl_hs|  xfdilate<128, 128, 1, 0, 1, 1, 1, 0, 130, 5, 5>_Pipeline_VITIS_LOOP_279_1|  return value|
|ap_idle                 |  out|    1|  ap_ctrl_hs|  xfdilate<128, 128, 1, 0, 1, 1, 1, 0, 130, 5, 5>_Pipeline_VITIS_LOOP_279_1|  return value|
|ap_ready                |  out|    1|  ap_ctrl_hs|  xfdilate<128, 128, 1, 0, 1, 1, 1, 0, 130, 5, 5>_Pipeline_VITIS_LOOP_279_1|  return value|
|row_ind_V_4_out         |  out|   13|      ap_vld|                                                            row_ind_V_4_out|       pointer|
|row_ind_V_4_out_ap_vld  |  out|    1|      ap_vld|                                                            row_ind_V_4_out|       pointer|
|row_ind_V_3_out         |  out|   13|      ap_vld|                                                            row_ind_V_3_out|       pointer|
|row_ind_V_3_out_ap_vld  |  out|    1|      ap_vld|                                                            row_ind_V_3_out|       pointer|
|row_ind_V_2_out         |  out|   13|      ap_vld|                                                            row_ind_V_2_out|       pointer|
|row_ind_V_2_out_ap_vld  |  out|    1|      ap_vld|                                                            row_ind_V_2_out|       pointer|
|row_ind_V_1_out         |  out|   13|      ap_vld|                                                            row_ind_V_1_out|       pointer|
|row_ind_V_1_out_ap_vld  |  out|    1|      ap_vld|                                                            row_ind_V_1_out|       pointer|
|row_ind_V_out           |  out|   13|      ap_vld|                                                              row_ind_V_out|       pointer|
|row_ind_V_out_ap_vld    |  out|    1|      ap_vld|                                                              row_ind_V_out|       pointer|
+------------------------+-----+-----+------------+---------------------------------------------------------------------------+--------------+

============================================================
+ Verbose Summary: Synthesis Manager
============================================================
InlineROM: 1
ExposeGlobal: 0
============================================================
+ Verbose Summary: CDFG Model
============================================================
IsTopModel: 0
ResetActiveHigh: 1
IsCombinational: 2
IsDatapathOnly: 2
HasWiredReturn: 1
HasMFsm: 2
HasVarLatency: 1
IsPipeline: 0
IsRtlPipelined: 0
IsInstanceOverlapped: 0
IsDontTouch: 0
HasImplIP: 0
IsGatedGlobalClock: 0

+ Individual pipeline summary: 
  * Pipeline-0: initiation interval (II) = 1, depth = 1


============================================================
+ Verbose Summary: Schedule
============================================================
* Number of FSM states : 1
* Pipeline : 1
  Pipeline-0 : II = 1, D = 1, States = { 1 }
* Dataflow Pipeline: 0

* FSM state transitions: 
1 --> 

* FSM state operations: 

State 1 <SV = 0> <Delay = 1.09>
ST_1 : Operation 4 [1/1] (0.00ns)   --->   "%row_ind_V_5 = alloca i32 1"   --->   Operation 4 'alloca' 'row_ind_V_5' <Predicate = true> <Delay = 0.00>
ST_1 : Operation 5 [1/1] (0.00ns)   --->   "%row_ind_V = alloca i32 1"   --->   Operation 5 'alloca' 'row_ind_V' <Predicate = true> <Delay = 0.00>
ST_1 : Operation 6 [1/1] (0.00ns)   --->   "%row_ind_V_1 = alloca i32 1"   --->   Operation 6 'alloca' 'row_ind_V_1' <Predicate = true> <Delay = 0.00>
ST_1 : Operation 7 [1/1] (0.00ns)   --->   "%row_ind_V_2 = alloca i32 1"   --->   Operation 7 'alloca' 'row_ind_V_2' <Predicate = true> <Delay = 0.00>
ST_1 : Operation 8 [1/1] (0.00ns)   --->   "%row_ind_V_3 = alloca i32 1"   --->   Operation 8 'alloca' 'row_ind_V_3' <Predicate = true> <Delay = 0.00>
ST_1 : Operation 9 [1/1] (0.00ns)   --->   "%row_ind_V_4 = alloca i32 1"   --->   Operation 9 'alloca' 'row_ind_V_4' <Predicate = true> <Delay = 0.00>
ST_1 : Operation 10 [1/1] (0.42ns)   --->   "%store_ln0 = store i3 0, i3 %row_ind_V_5"   --->   Operation 10 'store' 'store_ln0' <Predicate = true> <Delay = 0.42>
ST_1 : Operation 11 [1/1] (0.00ns)   --->   "%br_ln0 = br void %for.inc"   --->   Operation 11 'br' 'br_ln0' <Predicate = true> <Delay = 0.00>
ST_1 : Operation 12 [1/1] (0.00ns)   --->   "%row_ind_V_7 = load i3 %row_ind_V_5" [/home/dhimiter.qendri/work/Vitis_Libraries/vision//L1/include/imgproc/xf_dilation.hpp:279]   --->   Operation 12 'load' 'row_ind_V_7' <Predicate = true> <Delay = 0.00>
ST_1 : Operation 13 [1/1] (0.00ns)   --->   "%specpipeline_ln0 = specpipeline void @_ssdm_op_SpecPipeline, i32 4294967295, i32 0, i32 1, i32 0, void @p_str"   --->   Operation 13 'specpipeline' 'specpipeline_ln0' <Predicate = true> <Delay = 0.00>
ST_1 : Operation 14 [1/1] (0.58ns)   --->   "%icmp_ln279 = icmp_eq  i3 %row_ind_V_7, i3 5" [/home/dhimiter.qendri/work/Vitis_Libraries/vision//L1/include/imgproc/xf_dilation.hpp:279]   --->   Operation 14 'icmp' 'icmp_ln279' <Predicate = true> <Delay = 0.58> <CoreInst = "Cmp">   --->   Core 9 'Cmp' <Latency = 0> <II = 1> <Delay = 0.58> <FuncUnit> <Opcode : 'icmp'> <InPorts = 2> <OutPorts = 1>
ST_1 : Operation 15 [1/1] (0.00ns)   --->   "%speclooptripcount_ln0 = speclooptripcount void @_ssdm_op_SpecLoopTripCount, i64 5, i64 5, i64 5"   --->   Operation 15 'speclooptripcount' 'speclooptripcount_ln0' <Predicate = true> <Delay = 0.00>
ST_1 : Operation 16 [1/1] (0.67ns)   --->   "%init_row_ind = add i3 %row_ind_V_7, i3 1" [/home/dhimiter.qendri/work/Vitis_Libraries/vision//L1/include/imgproc/xf_dilation.hpp:279]   --->   Operation 16 'add' 'init_row_ind' <Predicate = true> <Delay = 0.67> <CoreInst = "Adder">   --->   Core 1 'Adder' <Latency = 0> <II = 1> <Delay = 0.67> <FuncUnit> <Opcode : 'add' 'sub'> <InPorts = 2> <OutPorts = 1>
ST_1 : Operation 17 [1/1] (0.00ns)   --->   "%br_ln279 = br i1 %icmp_ln279, void %for.inc.split, void %read_lines.exitStub" [/home/dhimiter.qendri/work/Vitis_Libraries/vision//L1/include/imgproc/xf_dilation.hpp:279]   --->   Operation 17 'br' 'br_ln279' <Predicate = true> <Delay = 0.00>
ST_1 : Operation 18 [1/1] (0.00ns)   --->   "%specloopname_ln255 = specloopname void @_ssdm_op_SpecLoopName, void @empty_17" [/home/dhimiter.qendri/work/Vitis_Libraries/vision//L1/include/imgproc/xf_dilation.hpp:255]   --->   Operation 18 'specloopname' 'specloopname_ln255' <Predicate = (!icmp_ln279)> <Delay = 0.00>
ST_1 : Operation 19 [1/1] (0.00ns)   --->   "%zext_ln214 = zext i3 %row_ind_V_7"   --->   Operation 19 'zext' 'zext_ln214' <Predicate = (!icmp_ln279)> <Delay = 0.00>
ST_1 : Operation 20 [1/1] (0.44ns)   --->   "%switch_ln283 = switch i3 %row_ind_V_7, void %arrayidx.case.4, i3 0, void %for.inc.split.arrayidx.exit_crit_edge1, i3 1, void %arrayidx.case.1, i3 2, void %arrayidx.case.2, i3 3, void %for.inc.split.arrayidx.exit_crit_edge" [/home/dhimiter.qendri/work/Vitis_Libraries/vision//L1/include/imgproc/xf_dilation.hpp:283]   --->   Operation 20 'switch' 'switch_ln283' <Predicate = (!icmp_ln279)> <Delay = 0.44>
ST_1 : Operation 21 [1/1] (0.00ns)   --->   "%store_ln283 = store i13 %zext_ln214, i13 %row_ind_V_3" [/home/dhimiter.qendri/work/Vitis_Libraries/vision//L1/include/imgproc/xf_dilation.hpp:283]   --->   Operation 21 'store' 'store_ln283' <Predicate = (!icmp_ln279 & row_ind_V_7 == 3)> <Delay = 0.00>
ST_1 : Operation 22 [1/1] (0.00ns)   --->   "%br_ln283 = br void %arrayidx.exit" [/home/dhimiter.qendri/work/Vitis_Libraries/vision//L1/include/imgproc/xf_dilation.hpp:283]   --->   Operation 22 'br' 'br_ln283' <Predicate = (!icmp_ln279 & row_ind_V_7 == 3)> <Delay = 0.00>
ST_1 : Operation 23 [1/1] (0.00ns)   --->   "%store_ln283 = store i13 %zext_ln214, i13 %row_ind_V_2" [/home/dhimiter.qendri/work/Vitis_Libraries/vision//L1/include/imgproc/xf_dilation.hpp:283]   --->   Operation 23 'store' 'store_ln283' <Predicate = (!icmp_ln279 & row_ind_V_7 == 2)> <Delay = 0.00>
ST_1 : Operation 24 [1/1] (0.00ns)   --->   "%br_ln283 = br void %arrayidx.exit" [/home/dhimiter.qendri/work/Vitis_Libraries/vision//L1/include/imgproc/xf_dilation.hpp:283]   --->   Operation 24 'br' 'br_ln283' <Predicate = (!icmp_ln279 & row_ind_V_7 == 2)> <Delay = 0.00>
ST_1 : Operation 25 [1/1] (0.00ns)   --->   "%store_ln283 = store i13 %zext_ln214, i13 %row_ind_V_1" [/home/dhimiter.qendri/work/Vitis_Libraries/vision//L1/include/imgproc/xf_dilation.hpp:283]   --->   Operation 25 'store' 'store_ln283' <Predicate = (!icmp_ln279 & row_ind_V_7 == 1)> <Delay = 0.00>
ST_1 : Operation 26 [1/1] (0.00ns)   --->   "%br_ln283 = br void %arrayidx.exit" [/home/dhimiter.qendri/work/Vitis_Libraries/vision//L1/include/imgproc/xf_dilation.hpp:283]   --->   Operation 26 'br' 'br_ln283' <Predicate = (!icmp_ln279 & row_ind_V_7 == 1)> <Delay = 0.00>
ST_1 : Operation 27 [1/1] (0.00ns)   --->   "%store_ln283 = store i13 %zext_ln214, i13 %row_ind_V" [/home/dhimiter.qendri/work/Vitis_Libraries/vision//L1/include/imgproc/xf_dilation.hpp:283]   --->   Operation 27 'store' 'store_ln283' <Predicate = (!icmp_ln279 & row_ind_V_7 == 0)> <Delay = 0.00>
ST_1 : Operation 28 [1/1] (0.00ns)   --->   "%br_ln283 = br void %arrayidx.exit" [/home/dhimiter.qendri/work/Vitis_Libraries/vision//L1/include/imgproc/xf_dilation.hpp:283]   --->   Operation 28 'br' 'br_ln283' <Predicate = (!icmp_ln279 & row_ind_V_7 == 0)> <Delay = 0.00>
ST_1 : Operation 29 [1/1] (0.00ns)   --->   "%store_ln283 = store i13 %zext_ln214, i13 %row_ind_V_4" [/home/dhimiter.qendri/work/Vitis_Libraries/vision//L1/include/imgproc/xf_dilation.hpp:283]   --->   Operation 29 'store' 'store_ln283' <Predicate = (!icmp_ln279 & row_ind_V_7 != 0 & row_ind_V_7 != 1 & row_ind_V_7 != 2 & row_ind_V_7 != 3)> <Delay = 0.00>
ST_1 : Operation 30 [1/1] (0.00ns)   --->   "%br_ln283 = br void %arrayidx.exit" [/home/dhimiter.qendri/work/Vitis_Libraries/vision//L1/include/imgproc/xf_dilation.hpp:283]   --->   Operation 30 'br' 'br_ln283' <Predicate = (!icmp_ln279 & row_ind_V_7 != 0 & row_ind_V_7 != 1 & row_ind_V_7 != 2 & row_ind_V_7 != 3)> <Delay = 0.00>
ST_1 : Operation 31 [1/1] (0.42ns)   --->   "%store_ln279 = store i3 %init_row_ind, i3 %row_ind_V_5" [/home/dhimiter.qendri/work/Vitis_Libraries/vision//L1/include/imgproc/xf_dilation.hpp:279]   --->   Operation 31 'store' 'store_ln279' <Predicate = (!icmp_ln279)> <Delay = 0.42>
ST_1 : Operation 32 [1/1] (0.00ns)   --->   "%br_ln279 = br void %for.inc" [/home/dhimiter.qendri/work/Vitis_Libraries/vision//L1/include/imgproc/xf_dilation.hpp:279]   --->   Operation 32 'br' 'br_ln279' <Predicate = (!icmp_ln279)> <Delay = 0.00>
ST_1 : Operation 33 [1/1] (0.00ns)   --->   "%row_ind_V_load = load i13 %row_ind_V"   --->   Operation 33 'load' 'row_ind_V_load' <Predicate = (icmp_ln279)> <Delay = 0.00>
ST_1 : Operation 34 [1/1] (0.00ns)   --->   "%row_ind_V_1_load = load i13 %row_ind_V_1"   --->   Operation 34 'load' 'row_ind_V_1_load' <Predicate = (icmp_ln279)> <Delay = 0.00>
ST_1 : Operation 35 [1/1] (0.00ns)   --->   "%row_ind_V_2_load = load i13 %row_ind_V_2"   --->   Operation 35 'load' 'row_ind_V_2_load' <Predicate = (icmp_ln279)> <Delay = 0.00>
ST_1 : Operation 36 [1/1] (0.00ns)   --->   "%row_ind_V_3_load = load i13 %row_ind_V_3"   --->   Operation 36 'load' 'row_ind_V_3_load' <Predicate = (icmp_ln279)> <Delay = 0.00>
ST_1 : Operation 37 [1/1] (0.00ns)   --->   "%row_ind_V_4_load = load i13 %row_ind_V_4"   --->   Operation 37 'load' 'row_ind_V_4_load' <Predicate = (icmp_ln279)> <Delay = 0.00>
ST_1 : Operation 38 [1/1] (0.00ns)   --->   "%write_ln0 = write void @_ssdm_op_Write.ap_auto.i13P0A, i13 %row_ind_V_4_out, i13 %row_ind_V_4_load"   --->   Operation 38 'write' 'write_ln0' <Predicate = (icmp_ln279)> <Delay = 0.00>
ST_1 : Operation 39 [1/1] (0.00ns)   --->   "%write_ln0 = write void @_ssdm_op_Write.ap_auto.i13P0A, i13 %row_ind_V_3_out, i13 %row_ind_V_3_load"   --->   Operation 39 'write' 'write_ln0' <Predicate = (icmp_ln279)> <Delay = 0.00>
ST_1 : Operation 40 [1/1] (0.00ns)   --->   "%write_ln0 = write void @_ssdm_op_Write.ap_auto.i13P0A, i13 %row_ind_V_2_out, i13 %row_ind_V_2_load"   --->   Operation 40 'write' 'write_ln0' <Predicate = (icmp_ln279)> <Delay = 0.00>
ST_1 : Operation 41 [1/1] (0.00ns)   --->   "%write_ln0 = write void @_ssdm_op_Write.ap_auto.i13P0A, i13 %row_ind_V_1_out, i13 %row_ind_V_1_load"   --->   Operation 41 'write' 'write_ln0' <Predicate = (icmp_ln279)> <Delay = 0.00>
ST_1 : Operation 42 [1/1] (0.00ns)   --->   "%write_ln0 = write void @_ssdm_op_Write.ap_auto.i13P0A, i13 %row_ind_V_out, i13 %row_ind_V_load"   --->   Operation 42 'write' 'write_ln0' <Predicate = (icmp_ln279)> <Delay = 0.00>
ST_1 : Operation 43 [1/1] (0.00ns)   --->   "%ret_ln0 = ret"   --->   Operation 43 'ret' 'ret_ln0' <Predicate = (icmp_ln279)> <Delay = 0.00>


============================================================
+ Verbose Summary: Binding
============================================================
STG Binding: 
---------------- STG Properties BEGIN ----------------
- Is combinational: 0
- Is one-state seq: 0
- Is datapath-only: 0
- Is pipelined: 0
- Is top level: 0
Port [ Return ] is wired: 1; IO mode=ap_ctrl_hs:ce=0
Port [ row_ind_V_4_out]:  wired=1; compound=0; hidden=0; nouse=0; global=0; static=0; extern=0; dir=1; type=0; pingpong=0; private_global=0; IO mode=ap_vld:ce=0
Port [ row_ind_V_3_out]:  wired=1; compound=0; hidden=0; nouse=0; global=0; static=0; extern=0; dir=1; type=0; pingpong=0; private_global=0; IO mode=ap_vld:ce=0
Port [ row_ind_V_2_out]:  wired=1; compound=0; hidden=0; nouse=0; global=0; static=0; extern=0; dir=1; type=0; pingpong=0; private_global=0; IO mode=ap_vld:ce=0
Port [ row_ind_V_1_out]:  wired=1; compound=0; hidden=0; nouse=0; global=0; static=0; extern=0; dir=1; type=0; pingpong=0; private_global=0; IO mode=ap_vld:ce=0
Port [ row_ind_V_out]:  wired=1; compound=0; hidden=0; nouse=0; global=0; static=0; extern=0; dir=1; type=0; pingpong=0; private_global=0; IO mode=ap_vld:ce=0
---------------- STG Properties END ------------------

---------------- Datapath Model BEGIN ----------------

<LifeTime>
<method=bitvector/>
row_ind_V_5           (alloca           ) [ 01]
row_ind_V             (alloca           ) [ 01]
row_ind_V_1           (alloca           ) [ 01]
row_ind_V_2           (alloca           ) [ 01]
row_ind_V_3           (alloca           ) [ 01]
row_ind_V_4           (alloca           ) [ 01]
store_ln0             (store            ) [ 00]
br_ln0                (br               ) [ 00]
row_ind_V_7           (load             ) [ 01]
specpipeline_ln0      (specpipeline     ) [ 00]
icmp_ln279            (icmp             ) [ 01]
speclooptripcount_ln0 (speclooptripcount) [ 00]
init_row_ind          (add              ) [ 00]
br_ln279              (br               ) [ 00]
specloopname_ln255    (specloopname     ) [ 00]
zext_ln214            (zext             ) [ 00]
switch_ln283          (switch           ) [ 00]
store_ln283           (store            ) [ 00]
br_ln283              (br               ) [ 00]
store_ln283           (store            ) [ 00]
br_ln283              (br               ) [ 00]
store_ln283           (store            ) [ 00]
br_ln283              (br               ) [ 00]
store_ln283           (store            ) [ 00]
br_ln283              (br               ) [ 00]
store_ln283           (store            ) [ 00]
br_ln283              (br               ) [ 00]
store_ln279           (store            ) [ 00]
br_ln279              (br               ) [ 00]
row_ind_V_load        (load             ) [ 00]
row_ind_V_1_load      (load             ) [ 00]
row_ind_V_2_load      (load             ) [ 00]
row_ind_V_3_load      (load             ) [ 00]
row_ind_V_4_load      (load             ) [ 00]
write_ln0             (write            ) [ 00]
write_ln0             (write            ) [ 00]
write_ln0             (write            ) [ 00]
write_ln0             (write            ) [ 00]
write_ln0             (write            ) [ 00]
ret_ln0               (ret              ) [ 00]
</LifeTime>

<model>

<comp_list>
<comp id="0" class="1000" name="row_ind_V_4_out">
<pin_list>
<pin id="1" dir="1" index="0" bw="1" slack="0"/>
</pin_list>
<bind>
<StgValue><ssdm name="row_ind_V_4_out"/></StgValue>
</bind>
</comp>

<comp id="2" class="1000" name="row_ind_V_3_out">
<pin_list>
<pin id="3" dir="1" index="0" bw="1" slack="0"/>
</pin_list>
<bind>
<StgValue><ssdm name="row_ind_V_3_out"/></StgValue>
</bind>
</comp>

<comp id="4" class="1000" name="row_ind_V_2_out">
<pin_list>
<pin id="5" dir="1" index="0" bw="1" slack="0"/>
</pin_list>
<bind>
<StgValue><ssdm name="row_ind_V_2_out"/></StgValue>
</bind>
</comp>

<comp id="6" class="1000" name="row_ind_V_1_out">
<pin_list>
<pin id="7" dir="1" index="0" bw="1" slack="0"/>
</pin_list>
<bind>
<StgValue><ssdm name="row_ind_V_1_out"/></StgValue>
</bind>
</comp>

<comp id="8" class="1000" name="row_ind_V_out">
<pin_list>
<pin id="9" dir="1" index="0" bw="1" slack="0"/>
</pin_list>
<bind>
<StgValue><ssdm name="row_ind_V_out"/></StgValue>
</bind>
</comp>

<comp id="10" class="1001" name="const_10">
<pin_list>
<pin id="11" dir="1" index="0" bw="1" slack="0"/>
</pin_list>
<bind>
<StgValue><ssdm name=""/></StgValue>
</bind>
</comp>

<comp id="12" class="1001" name="const_12">
<pin_list>
<pin id="13" dir="1" index="0" bw="1" slack="0"/>
</pin_list>
<bind>
<StgValue><ssdm name=""/></StgValue>
</bind>
</comp>

<comp id="14" class="1001" name="const_14">
<pin_list>
<pin id="15" dir="1" index="0" bw="1" slack="2147483647"/>
</pin_list>
<bind>
<StgValue><ssdm name="_ssdm_op_SpecPipeline"/></StgValue>
</bind>
</comp>

<comp id="16" class="1001" name="const_16">
<pin_list>
<pin id="17" dir="1" index="0" bw="1" slack="2147483647"/>
</pin_list>
<bind>
<StgValue><ssdm name=""/></StgValue>
</bind>
</comp>

<comp id="18" class="1001" name="const_18">
<pin_list>
<pin id="19" dir="1" index="0" bw="1" slack="2147483647"/>
</pin_list>
<bind>
<StgValue><ssdm name=""/></StgValue>
</bind>
</comp>

<comp id="20" class="1001" name="const_20">
<pin_list>
<pin id="21" dir="1" index="0" bw="1" slack="2147483647"/>
</pin_list>
<bind>
<StgValue><ssdm name="p_str"/></StgValue>
</bind>
</comp>

<comp id="22" class="1001" name="const_22">
<pin_list>
<pin id="23" dir="1" index="0" bw="1" slack="0"/>
</pin_list>
<bind>
<StgValue><ssdm name=""/></StgValue>
</bind>
</comp>

<comp id="24" class="1001" name="const_24">
<pin_list>
<pin id="25" dir="1" index="0" bw="1" slack="2147483647"/>
</pin_list>
<bind>
<StgValue><ssdm name="_ssdm_op_SpecLoopTripCount"/></StgValue>
</bind>
</comp>

<comp id="26" class="1001" name="const_26">
<pin_list>
<pin id="27" dir="1" index="0" bw="1" slack="2147483647"/>
</pin_list>
<bind>
<StgValue><ssdm name=""/></StgValue>
</bind>
</comp>

<comp id="28" class="1001" name="const_28">
<pin_list>
<pin id="29" dir="1" index="0" bw="1" slack="0"/>
</pin_list>
<bind>
<StgValue><ssdm name=""/></StgValue>
</bind>
</comp>

<comp id="30" class="1001" name="const_30">
<pin_list>
<pin id="31" dir="1" index="0" bw="1" slack="2147483647"/>
</pin_list>
<bind>
<StgValue><ssdm name="_ssdm_op_SpecLoopName"/></StgValue>
</bind>
</comp>

<comp id="32" class="1001" name="const_32">
<pin_list>
<pin id="33" dir="1" index="0" bw="1" slack="2147483647"/>
</pin_list>
<bind>
<StgValue><ssdm name="empty_17"/></StgValue>
</bind>
</comp>

<comp id="34" class="1001" name="const_34">
<pin_list>
<pin id="35" dir="1" index="0" bw="1" slack="2147483647"/>
</pin_list>
<bind>
<StgValue><ssdm name=""/></StgValue>
</bind>
</comp>

<comp id="36" class="1001" name="const_36">
<pin_list>
<pin id="37" dir="1" index="0" bw="1" slack="2147483647"/>
</pin_list>
<bind>
<StgValue><ssdm name=""/></StgValue>
</bind>
</comp>

<comp id="38" class="1001" name="const_38">
<pin_list>
<pin id="39" dir="1" index="0" bw="1" slack="0"/>
</pin_list>
<bind>
<StgValue><ssdm name="_ssdm_op_Write.ap_auto.i13P0A"/></StgValue>
</bind>
</comp>

<comp id="40" class="1004" name="row_ind_V_5_fu_40">
<pin_list>
<pin id="41" dir="0" index="0" bw="1" slack="0"/>
<pin id="42" dir="1" index="1" bw="3" slack="0"/>
</pin_list>
<bind>
<opcode="alloca(26) " fcode="alloca"/>
<opset="row_ind_V_5/1 "/>
</bind>
</comp>

<comp id="44" class="1004" name="row_ind_V_fu_44">
<pin_list>
<pin id="45" dir="0" index="0" bw="1" slack="0"/>
<pin id="46" dir="1" index="1" bw="13" slack="0"/>
</pin_list>
<bind>
<opcode="alloca(26) " fcode="alloca"/>
<opset="row_ind_V/1 "/>
</bind>
</comp>

<comp id="48" class="1004" name="row_ind_V_1_fu_48">
<pin_list>
<pin id="49" dir="0" index="0" bw="1" slack="0"/>
<pin id="50" dir="1" index="1" bw="13" slack="0"/>
</pin_list>
<bind>
<opcode="alloca(26) " fcode="alloca"/>
<opset="row_ind_V_1/1 "/>
</bind>
</comp>

<comp id="52" class="1004" name="row_ind_V_2_fu_52">
<pin_list>
<pin id="53" dir="0" index="0" bw="1" slack="0"/>
<pin id="54" dir="1" index="1" bw="13" slack="0"/>
</pin_list>
<bind>
<opcode="alloca(26) " fcode="alloca"/>
<opset="row_ind_V_2/1 "/>
</bind>
</comp>

<comp id="56" class="1004" name="row_ind_V_3_fu_56">
<pin_list>
<pin id="57" dir="0" index="0" bw="1" slack="0"/>
<pin id="58" dir="1" index="1" bw="13" slack="0"/>
</pin_list>
<bind>
<opcode="alloca(26) " fcode="alloca"/>
<opset="row_ind_V_3/1 "/>
</bind>
</comp>

<comp id="60" class="1004" name="row_ind_V_4_fu_60">
<pin_list>
<pin id="61" dir="0" index="0" bw="1" slack="0"/>
<pin id="62" dir="1" index="1" bw="13" slack="0"/>
</pin_list>
<bind>
<opcode="alloca(26) " fcode="alloca"/>
<opset="row_ind_V_4/1 "/>
</bind>
</comp>

<comp id="64" class="1004" name="write_ln0_write_fu_64">
<pin_list>
<pin id="65" dir="0" index="0" bw="0" slack="0"/>
<pin id="66" dir="0" index="1" bw="13" slack="0"/>
<pin id="67" dir="0" index="2" bw="13" slack="0"/>
<pin id="68" dir="1" index="3" bw="0" slack="2147483647"/>
</pin_list>
<bind>
<opcode="write(1151) " fcode="write"/>
<opset="write_ln0/1 "/>
</bind>
</comp>

<comp id="71" class="1004" name="write_ln0_write_fu_71">
<pin_list>
<pin id="72" dir="0" index="0" bw="0" slack="0"/>
<pin id="73" dir="0" index="1" bw="13" slack="0"/>
<pin id="74" dir="0" index="2" bw="13" slack="0"/>
<pin id="75" dir="1" index="3" bw="0" slack="2147483647"/>
</pin_list>
<bind>
<opcode="write(1151) " fcode="write"/>
<opset="write_ln0/1 "/>
</bind>
</comp>

<comp id="78" class="1004" name="write_ln0_write_fu_78">
<pin_list>
<pin id="79" dir="0" index="0" bw="0" slack="0"/>
<pin id="80" dir="0" index="1" bw="13" slack="0"/>
<pin id="81" dir="0" index="2" bw="13" slack="0"/>
<pin id="82" dir="1" index="3" bw="0" slack="2147483647"/>
</pin_list>
<bind>
<opcode="write(1151) " fcode="write"/>
<opset="write_ln0/1 "/>
</bind>
</comp>

<comp id="85" class="1004" name="write_ln0_write_fu_85">
<pin_list>
<pin id="86" dir="0" index="0" bw="0" slack="0"/>
<pin id="87" dir="0" index="1" bw="13" slack="0"/>
<pin id="88" dir="0" index="2" bw="13" slack="0"/>
<pin id="89" dir="1" index="3" bw="0" slack="2147483647"/>
</pin_list>
<bind>
<opcode="write(1151) " fcode="write"/>
<opset="write_ln0/1 "/>
</bind>
</comp>

<comp id="92" class="1004" name="write_ln0_write_fu_92">
<pin_list>
<pin id="93" dir="0" index="0" bw="0" slack="0"/>
<pin id="94" dir="0" index="1" bw="13" slack="0"/>
<pin id="95" dir="0" index="2" bw="13" slack="0"/>
<pin id="96" dir="1" index="3" bw="0" slack="2147483647"/>
</pin_list>
<bind>
<opcode="write(1151) " fcode="write"/>
<opset="write_ln0/1 "/>
</bind>
</comp>

<comp id="99" class="1004" name="store_ln0_store_fu_99">
<pin_list>
<pin id="100" dir="0" index="0" bw="1" slack="0"/>
<pin id="101" dir="0" index="1" bw="3" slack="0"/>
<pin id="102" dir="1" index="2" bw="0" slack="2147483647"/>
</pin_list>
<bind>
<opcode="store(28) " fcode="store"/>
<opset="store_ln0/1 "/>
</bind>
</comp>

<comp id="104" class="1004" name="row_ind_V_7_load_fu_104">
<pin_list>
<pin id="105" dir="0" index="0" bw="3" slack="0"/>
<pin id="106" dir="1" index="1" bw="3" slack="0"/>
</pin_list>
<bind>
<opcode="load(27) " fcode="load"/>
<opset="row_ind_V_7/1 "/>
</bind>
</comp>

<comp id="107" class="1004" name="icmp_ln279_fu_107">
<pin_list>
<pin id="108" dir="0" index="0" bw="3" slack="0"/>
<pin id="109" dir="0" index="1" bw="3" slack="0"/>
<pin id="110" dir="1" index="2" bw="1" slack="2147483647"/>
</pin_list>
<bind>
<opcode="icmp(45) " fcode="icmp"/>
<opset="icmp_ln279/1 "/>
</bind>
</comp>

<comp id="113" class="1004" name="init_row_ind_fu_113">
<pin_list>
<pin id="114" dir="0" index="0" bw="3" slack="0"/>
<pin id="115" dir="0" index="1" bw="1" slack="0"/>
<pin id="116" dir="1" index="2" bw="3" slack="0"/>
</pin_list>
<bind>
<opcode="add(8) " fcode="add"/>
<opset="init_row_ind/1 "/>
</bind>
</comp>

<comp id="119" class="1004" name="zext_ln214_fu_119">
<pin_list>
<pin id="120" dir="0" index="0" bw="3" slack="0"/>
<pin id="121" dir="1" index="1" bw="13" slack="0"/>
</pin_list>
<bind>
<opcode="zext(34) " fcode="zext"/>
<opset="zext_ln214/1 "/>
</bind>
</comp>

<comp id="123" class="1004" name="store_ln283_store_fu_123">
<pin_list>
<pin id="124" dir="0" index="0" bw="3" slack="0"/>
<pin id="125" dir="0" index="1" bw="13" slack="0"/>
<pin id="126" dir="1" index="2" bw="0" slack="2147483647"/>
</pin_list>
<bind>
<opcode="store(28) " fcode="store"/>
<opset="store_ln283/1 "/>
</bind>
</comp>

<comp id="128" class="1004" name="store_ln283_store_fu_128">
<pin_list>
<pin id="129" dir="0" index="0" bw="3" slack="0"/>
<pin id="130" dir="0" index="1" bw="13" slack="0"/>
<pin id="131" dir="1" index="2" bw="0" slack="2147483647"/>
</pin_list>
<bind>
<opcode="store(28) " fcode="store"/>
<opset="store_ln283/1 "/>
</bind>
</comp>

<comp id="133" class="1004" name="store_ln283_store_fu_133">
<pin_list>
<pin id="134" dir="0" index="0" bw="3" slack="0"/>
<pin id="135" dir="0" index="1" bw="13" slack="0"/>
<pin id="136" dir="1" index="2" bw="0" slack="2147483647"/>
</pin_list>
<bind>
<opcode="store(28) " fcode="store"/>
<opset="store_ln283/1 "/>
</bind>
</comp>

<comp id="138" class="1004" name="store_ln283_store_fu_138">
<pin_list>
<pin id="139" dir="0" index="0" bw="3" slack="0"/>
<pin id="140" dir="0" index="1" bw="13" slack="0"/>
<pin id="141" dir="1" index="2" bw="0" slack="2147483647"/>
</pin_list>
<bind>
<opcode="store(28) " fcode="store"/>
<opset="store_ln283/1 "/>
</bind>
</comp>

<comp id="143" class="1004" name="store_ln283_store_fu_143">
<pin_list>
<pin id="144" dir="0" index="0" bw="3" slack="0"/>
<pin id="145" dir="0" index="1" bw="13" slack="0"/>
<pin id="146" dir="1" index="2" bw="0" slack="2147483647"/>
</pin_list>
<bind>
<opcode="store(28) " fcode="store"/>
<opset="store_ln283/1 "/>
</bind>
</comp>

<comp id="148" class="1004" name="store_ln279_store_fu_148">
<pin_list>
<pin id="149" dir="0" index="0" bw="3" slack="0"/>
<pin id="150" dir="0" index="1" bw="3" slack="0"/>
<pin id="151" dir="1" index="2" bw="0" slack="2147483647"/>
</pin_list>
<bind>
<opcode="store(28) " fcode="store"/>
<opset="store_ln279/1 "/>
</bind>
</comp>

<comp id="153" class="1004" name="row_ind_V_load_load_fu_153">
<pin_list>
<pin id="154" dir="0" index="0" bw="13" slack="0"/>
<pin id="155" dir="1" index="1" bw="13" slack="0"/>
</pin_list>
<bind>
<opcode="load(27) " fcode="load"/>
<opset="row_ind_V_load/1 "/>
</bind>
</comp>

<comp id="157" class="1004" name="row_ind_V_1_load_load_fu_157">
<pin_list>
<pin id="158" dir="0" index="0" bw="13" slack="0"/>
<pin id="159" dir="1" index="1" bw="13" slack="0"/>
</pin_list>
<bind>
<opcode="load(27) " fcode="load"/>
<opset="row_ind_V_1_load/1 "/>
</bind>
</comp>

<comp id="161" class="1004" name="row_ind_V_2_load_load_fu_161">
<pin_list>
<pin id="162" dir="0" index="0" bw="13" slack="0"/>
<pin id="163" dir="1" index="1" bw="13" slack="0"/>
</pin_list>
<bind>
<opcode="load(27) " fcode="load"/>
<opset="row_ind_V_2_load/1 "/>
</bind>
</comp>

<comp id="165" class="1004" name="row_ind_V_3_load_load_fu_165">
<pin_list>
<pin id="166" dir="0" index="0" bw="13" slack="0"/>
<pin id="167" dir="1" index="1" bw="13" slack="0"/>
</pin_list>
<bind>
<opcode="load(27) " fcode="load"/>
<opset="row_ind_V_3_load/1 "/>
</bind>
</comp>

<comp id="169" class="1004" name="row_ind_V_4_load_load_fu_169">
<pin_list>
<pin id="170" dir="0" index="0" bw="13" slack="0"/>
<pin id="171" dir="1" index="1" bw="13" slack="0"/>
</pin_list>
<bind>
<opcode="load(27) " fcode="load"/>
<opset="row_ind_V_4_load/1 "/>
</bind>
</comp>

<comp id="173" class="1005" name="row_ind_V_5_reg_173">
<pin_list>
<pin id="174" dir="0" index="0" bw="3" slack="0"/>
<pin id="175" dir="1" index="1" bw="3" slack="0"/>
</pin_list>
<bind>
<opset="row_ind_V_5 "/>
</bind>
</comp>

<comp id="180" class="1005" name="row_ind_V_reg_180">
<pin_list>
<pin id="181" dir="0" index="0" bw="13" slack="0"/>
<pin id="182" dir="1" index="1" bw="13" slack="0"/>
</pin_list>
<bind>
<opset="row_ind_V "/>
</bind>
</comp>

<comp id="186" class="1005" name="row_ind_V_1_reg_186">
<pin_list>
<pin id="187" dir="0" index="0" bw="13" slack="0"/>
<pin id="188" dir="1" index="1" bw="13" slack="0"/>
</pin_list>
<bind>
<opset="row_ind_V_1 "/>
</bind>
</comp>

<comp id="192" class="1005" name="row_ind_V_2_reg_192">
<pin_list>
<pin id="193" dir="0" index="0" bw="13" slack="0"/>
<pin id="194" dir="1" index="1" bw="13" slack="0"/>
</pin_list>
<bind>
<opset="row_ind_V_2 "/>
</bind>
</comp>

<comp id="198" class="1005" name="row_ind_V_3_reg_198">
<pin_list>
<pin id="199" dir="0" index="0" bw="13" slack="0"/>
<pin id="200" dir="1" index="1" bw="13" slack="0"/>
</pin_list>
<bind>
<opset="row_ind_V_3 "/>
</bind>
</comp>

<comp id="204" class="1005" name="row_ind_V_4_reg_204">
<pin_list>
<pin id="205" dir="0" index="0" bw="13" slack="0"/>
<pin id="206" dir="1" index="1" bw="13" slack="0"/>
</pin_list>
<bind>
<opset="row_ind_V_4 "/>
</bind>
</comp>

</comp_list>

<net_list>
<net id="43"><net_src comp="10" pin="0"/><net_sink comp="40" pin=0"/></net>

<net id="47"><net_src comp="10" pin="0"/><net_sink comp="44" pin=0"/></net>

<net id="51"><net_src comp="10" pin="0"/><net_sink comp="48" pin=0"/></net>

<net id="55"><net_src comp="10" pin="0"/><net_sink comp="52" pin=0"/></net>

<net id="59"><net_src comp="10" pin="0"/><net_sink comp="56" pin=0"/></net>

<net id="63"><net_src comp="10" pin="0"/><net_sink comp="60" pin=0"/></net>

<net id="69"><net_src comp="38" pin="0"/><net_sink comp="64" pin=0"/></net>

<net id="70"><net_src comp="0" pin="0"/><net_sink comp="64" pin=1"/></net>

<net id="76"><net_src comp="38" pin="0"/><net_sink comp="71" pin=0"/></net>

<net id="77"><net_src comp="2" pin="0"/><net_sink comp="71" pin=1"/></net>

<net id="83"><net_src comp="38" pin="0"/><net_sink comp="78" pin=0"/></net>

<net id="84"><net_src comp="4" pin="0"/><net_sink comp="78" pin=1"/></net>

<net id="90"><net_src comp="38" pin="0"/><net_sink comp="85" pin=0"/></net>

<net id="91"><net_src comp="6" pin="0"/><net_sink comp="85" pin=1"/></net>

<net id="97"><net_src comp="38" pin="0"/><net_sink comp="92" pin=0"/></net>

<net id="98"><net_src comp="8" pin="0"/><net_sink comp="92" pin=1"/></net>

<net id="103"><net_src comp="12" pin="0"/><net_sink comp="99" pin=0"/></net>

<net id="111"><net_src comp="104" pin="1"/><net_sink comp="107" pin=0"/></net>

<net id="112"><net_src comp="22" pin="0"/><net_sink comp="107" pin=1"/></net>

<net id="117"><net_src comp="104" pin="1"/><net_sink comp="113" pin=0"/></net>

<net id="118"><net_src comp="28" pin="0"/><net_sink comp="113" pin=1"/></net>

<net id="122"><net_src comp="104" pin="1"/><net_sink comp="119" pin=0"/></net>

<net id="127"><net_src comp="119" pin="1"/><net_sink comp="123" pin=0"/></net>

<net id="132"><net_src comp="119" pin="1"/><net_sink comp="128" pin=0"/></net>

<net id="137"><net_src comp="119" pin="1"/><net_sink comp="133" pin=0"/></net>

<net id="142"><net_src comp="119" pin="1"/><net_sink comp="138" pin=0"/></net>

<net id="147"><net_src comp="119" pin="1"/><net_sink comp="143" pin=0"/></net>

<net id="152"><net_src comp="113" pin="2"/><net_sink comp="148" pin=0"/></net>

<net id="156"><net_src comp="153" pin="1"/><net_sink comp="92" pin=2"/></net>

<net id="160"><net_src comp="157" pin="1"/><net_sink comp="85" pin=2"/></net>

<net id="164"><net_src comp="161" pin="1"/><net_sink comp="78" pin=2"/></net>

<net id="168"><net_src comp="165" pin="1"/><net_sink comp="71" pin=2"/></net>

<net id="172"><net_src comp="169" pin="1"/><net_sink comp="64" pin=2"/></net>

<net id="176"><net_src comp="40" pin="1"/><net_sink comp="173" pin=0"/></net>

<net id="177"><net_src comp="173" pin="1"/><net_sink comp="99" pin=1"/></net>

<net id="178"><net_src comp="173" pin="1"/><net_sink comp="104" pin=0"/></net>

<net id="179"><net_src comp="173" pin="1"/><net_sink comp="148" pin=1"/></net>

<net id="183"><net_src comp="44" pin="1"/><net_sink comp="180" pin=0"/></net>

<net id="184"><net_src comp="180" pin="1"/><net_sink comp="138" pin=1"/></net>

<net id="185"><net_src comp="180" pin="1"/><net_sink comp="153" pin=0"/></net>

<net id="189"><net_src comp="48" pin="1"/><net_sink comp="186" pin=0"/></net>

<net id="190"><net_src comp="186" pin="1"/><net_sink comp="133" pin=1"/></net>

<net id="191"><net_src comp="186" pin="1"/><net_sink comp="157" pin=0"/></net>

<net id="195"><net_src comp="52" pin="1"/><net_sink comp="192" pin=0"/></net>

<net id="196"><net_src comp="192" pin="1"/><net_sink comp="128" pin=1"/></net>

<net id="197"><net_src comp="192" pin="1"/><net_sink comp="161" pin=0"/></net>

<net id="201"><net_src comp="56" pin="1"/><net_sink comp="198" pin=0"/></net>

<net id="202"><net_src comp="198" pin="1"/><net_sink comp="123" pin=1"/></net>

<net id="203"><net_src comp="198" pin="1"/><net_sink comp="165" pin=0"/></net>

<net id="207"><net_src comp="60" pin="1"/><net_sink comp="204" pin=0"/></net>

<net id="208"><net_src comp="204" pin="1"/><net_sink comp="143" pin=1"/></net>

<net id="209"><net_src comp="204" pin="1"/><net_sink comp="169" pin=0"/></net>

</net_list>

</model> 
---------------- Datapath Model END ------------------

* FSMD analyzer results:
  - Output states:
	Port: row_ind_V_4_out | {1 }
	Port: row_ind_V_3_out | {1 }
	Port: row_ind_V_2_out | {1 }
	Port: row_ind_V_1_out | {1 }
	Port: row_ind_V_out | {1 }
 - Input state : 
  - Chain level:
	State 1
		store_ln0 : 1
		row_ind_V_7 : 1
		icmp_ln279 : 2
		init_row_ind : 2
		br_ln279 : 3
		zext_ln214 : 2
		switch_ln283 : 2
		store_ln283 : 3
		store_ln283 : 3
		store_ln283 : 3
		store_ln283 : 3
		store_ln283 : 3
		store_ln279 : 3
		row_ind_V_load : 1
		row_ind_V_1_load : 1
		row_ind_V_2_load : 1
		row_ind_V_3_load : 1
		row_ind_V_4_load : 1
		write_ln0 : 2
		write_ln0 : 2
		write_ln0 : 2
		write_ln0 : 2
		write_ln0 : 2


============================================================
+ Verbose Summary: Datapath Resource usage 
============================================================

* Functional unit list:
|----------|-----------------------|---------|---------|
| Operation|    Functional Unit    |    FF   |   LUT   |
|----------|-----------------------|---------|---------|
|    add   |  init_row_ind_fu_113  |    0    |    10   |
|----------|-----------------------|---------|---------|
|   icmp   |   icmp_ln279_fu_107   |    0    |    8    |
|----------|-----------------------|---------|---------|
|          | write_ln0_write_fu_64 |    0    |    0    |
|          | write_ln0_write_fu_71 |    0    |    0    |
|   write  | write_ln0_write_fu_78 |    0    |    0    |
|          | write_ln0_write_fu_85 |    0    |    0    |
|          | write_ln0_write_fu_92 |    0    |    0    |
|----------|-----------------------|---------|---------|
|   zext   |   zext_ln214_fu_119   |    0    |    0    |
|----------|-----------------------|---------|---------|
|   Total  |                       |    0    |    18   |
|----------|-----------------------|---------|---------|

Memories:
N/A

* Register list:
+-------------------+--------+
|                   |   FF   |
+-------------------+--------+
|row_ind_V_1_reg_186|   13   |
|row_ind_V_2_reg_192|   13   |
|row_ind_V_3_reg_198|   13   |
|row_ind_V_4_reg_204|   13   |
|row_ind_V_5_reg_173|    3   |
| row_ind_V_reg_180 |   13   |
+-------------------+--------+
|       Total       |   68   |
+-------------------+--------+

* Multiplexer (MUX) list: 
|--------|------|------|------|--------|
|  Comp  |  Pin | Size |  BW  | S x BW |
|--------|------|------|------|--------|
|  Total |      |      |      |    0   |
|--------|------|------|------|--------|



* Summary:
+-----------+--------+--------+
|           |   FF   |   LUT  |
+-----------+--------+--------+
|  Function |    0   |   18   |
|   Memory  |    -   |    -   |
|Multiplexer|    -   |    -   |
|  Register |   68   |    -   |
+-----------+--------+--------+
|   Total   |   68   |   18   |
+-----------+--------+--------+
