

================================================================
== Vitis HLS Report for 'xfMat2AXIvideo_8_0_128_128_1_1_Pipeline_loop_col_mat2axi'
================================================================
* Date:           Wed Feb  1 09:20:44 2023

* Version:        2022.2 (Build 3670227 on Oct 13 2022)
* Project:        dilation.prj
* Solution:       sol1 (Vivado IP Flow Target)
* Product family: zynquplus
* Target device:  xczu9eg-ffvb1156-2-i


================================================================
== Performance Estimates
================================================================
+ Timing: 
    * Summary: 
    +--------+---------+----------+------------+
    |  Clock |  Target | Estimated| Uncertainty|
    +--------+---------+----------+------------+
    |ap_clk  |  3.30 ns|  1.276 ns|     0.89 ns|
    +--------+---------+----------+------------+

+ Latency: 
    * Summary: 
    +---------+---------+-----------+----------+-----+-----+---------+
    |  Latency (cycles) |  Latency (absolute)  |  Interval | Pipeline|
    |   min   |   max   |    min    |    max   | min | max |   Type  |
    +---------+---------+-----------+----------+-----+-----+---------+
    |        4|      131|  13.200 ns|  0.432 us|    4|  131|       no|
    +---------+---------+-----------+----------+-----+-----+---------+

    + Detail: 
        * Instance: 
        N/A

        * Loop: 
        +--------------------+---------+---------+----------+-----------+-----------+---------+----------+
        |                    |  Latency (cycles) | Iteration|  Initiation Interval  |   Trip  |          |
        |      Loop Name     |   min   |   max   |  Latency |  achieved |   target  |  Count  | Pipelined|
        +--------------------+---------+---------+----------+-----------+-----------+---------+----------+
        |- loop_col_mat2axi  |        2|      129|         2|          1|          1|  1 ~ 128|       yes|
        +--------------------+---------+---------+----------+-----------+-----------+---------+----------+

============================================================
+ Verbose Summary: Synthesis Manager
============================================================
InlineROM: 1
ExposeGlobal: 0
============================================================
+ Verbose Summary: CDFG Model
============================================================
IsTopModel: 0
ResetActiveHigh: 1
IsCombinational: 0
IsDatapathOnly: 0
HasWiredReturn: 1
HasMFsm: 2
HasVarLatency: 1
IsPipeline: 0
IsRtlPipelined: 0
IsInstanceOverlapped: 0
IsDontTouch: 0
HasImplIP: 0
IsGatedGlobalClock: 0

+ Individual pipeline summary: 
  * Pipeline-0: initiation interval (II) = 1, depth = 2


============================================================
+ Verbose Summary: Schedule
============================================================
* Number of FSM states : 2
* Pipeline : 1
  Pipeline-0 : II = 1, D = 2, States = { 1 2 }
* Dataflow Pipeline: 0

* FSM state transitions: 
1 --> 2 
2 --> 

* FSM state operations: 

State 1 <SV = 0> <Delay = 1.27>
ST_1 : Operation 5 [1/1] (0.00ns)   --->   "%j = alloca i32 1"   --->   Operation 5 'alloca' 'j' <Predicate = true> <Delay = 0.00>
ST_1 : Operation 6 [1/1] (0.00ns)   --->   "%sub_read = read i7 @_ssdm_op_Read.ap_auto.i7, i7 %sub"   --->   Operation 6 'read' 'sub_read' <Predicate = true> <Delay = 0.00>
ST_1 : Operation 7 [1/1] (0.00ns)   --->   "%p_read = read i8 @_ssdm_op_Read.ap_auto.i8, i8 %p_read1"   --->   Operation 7 'read' 'p_read' <Predicate = true> <Delay = 0.00>
ST_1 : Operation 8 [1/1] (0.00ns)   --->   "%sof_read = read i1 @_ssdm_op_Read.ap_auto.i1, i1 %sof"   --->   Operation 8 'read' 'sof_read' <Predicate = true> <Delay = 0.00>
ST_1 : Operation 9 [1/1] (0.00ns)   --->   "%sub_cast = zext i7 %sub_read"   --->   Operation 9 'zext' 'sub_cast' <Predicate = true> <Delay = 0.00>
ST_1 : Operation 10 [1/1] (0.00ns)   --->   "%specaxissidechannel_ln0 = specaxissidechannel void @_ssdm_op_SpecAXISSideChannel, i8 %dst_V_data_V, i1 %dst_V_keep_V, i1 %dst_V_strb_V, i1 %dst_V_user_V, i1 %dst_V_last_V, i1 %dst_V_id_V, i1 %dst_V_dest_V, void @empty_0"   --->   Operation 10 'specaxissidechannel' 'specaxissidechannel_ln0' <Predicate = true> <Delay = 0.00>
ST_1 : Operation 11 [1/1] (0.00ns)   --->   "%specinterface_ln0 = specinterface void @_ssdm_op_SpecInterface, i8 %dst_V_data_V, i1 %dst_V_keep_V, i1 %dst_V_strb_V, i1 %dst_V_user_V, i1 %dst_V_last_V, i1 %dst_V_id_V, i1 %dst_V_dest_V, void @empty_2, i32 0, i32 0, void @empty_3, i32 0, i32 0, void @empty_4, void @empty_4, void @empty_4, i32 0, i32 0, i32 0, i32 0, void @empty_4, void @empty_4, i32 4294967295, i32 0"   --->   Operation 11 'specinterface' 'specinterface_ln0' <Predicate = true> <Delay = 0.00>
ST_1 : Operation 12 [1/1] (0.00ns)   --->   "%specinterface_ln0 = specinterface void @_ssdm_op_SpecInterface, i8 %out_mat_data25, void @empty_23, i32 0, i32 0, void @empty_4, i32 0, i32 0, void @empty_4, void @empty_4, void @empty_4, i32 0, i32 0, i32 0, i32 0, void @empty_4, void @empty_4, i32 4294967295, i32 0"   --->   Operation 12 'specinterface' 'specinterface_ln0' <Predicate = true> <Delay = 0.00>
ST_1 : Operation 13 [1/1] (0.42ns)   --->   "%store_ln0 = store i8 0, i8 %j"   --->   Operation 13 'store' 'store_ln0' <Predicate = true> <Delay = 0.42>
ST_1 : Operation 14 [1/1] (0.42ns)   --->   "%br_ln0 = br void %for.body10"   --->   Operation 14 'br' 'br_ln0' <Predicate = true> <Delay = 0.42>
ST_1 : Operation 15 [1/1] (0.00ns)   --->   "%j_1 = load i8 %j" [/home/dhimiter.qendri/work/Vitis_Libraries/vision//L1/include/common/xf_infra.hpp:199]   --->   Operation 15 'load' 'j_1' <Predicate = true> <Delay = 0.00>
ST_1 : Operation 16 [1/1] (0.84ns)   --->   "%icmp_ln199 = icmp_eq  i8 %j_1, i8 %p_read" [/home/dhimiter.qendri/work/Vitis_Libraries/vision//L1/include/common/xf_infra.hpp:199]   --->   Operation 16 'icmp' 'icmp_ln199' <Predicate = true> <Delay = 0.84> <CoreInst = "Cmp">   --->   Core 9 'Cmp' <Latency = 0> <II = 1> <Delay = 0.84> <FuncUnit> <Opcode : 'icmp'> <InPorts = 2> <OutPorts = 1>
ST_1 : Operation 17 [1/1] (0.76ns)   --->   "%j_2 = add i8 %j_1, i8 1" [/home/dhimiter.qendri/work/Vitis_Libraries/vision//L1/include/common/xf_infra.hpp:199]   --->   Operation 17 'add' 'j_2' <Predicate = true> <Delay = 0.76> <CoreInst = "Adder">   --->   Core 1 'Adder' <Latency = 0> <II = 1> <Delay = 0.76> <FuncUnit> <Opcode : 'add' 'sub'> <InPorts = 2> <OutPorts = 1>
ST_1 : Operation 18 [1/1] (0.00ns)   --->   "%br_ln199 = br i1 %icmp_ln199, void %for.body10.split, void %for.inc25.loopexit.exitStub" [/home/dhimiter.qendri/work/Vitis_Libraries/vision//L1/include/common/xf_infra.hpp:199]   --->   Operation 18 'br' 'br_ln199' <Predicate = true> <Delay = 0.00>
ST_1 : Operation 19 [1/1] (0.84ns)   --->   "%axi_last_V = icmp_eq  i8 %j_1, i8 %sub_cast" [/home/dhimiter.qendri/work/Vitis_Libraries/vision//L1/include/common/xf_infra.hpp:211]   --->   Operation 19 'icmp' 'axi_last_V' <Predicate = (!icmp_ln199)> <Delay = 0.84> <CoreInst = "Cmp">   --->   Core 9 'Cmp' <Latency = 0> <II = 1> <Delay = 0.84> <FuncUnit> <Opcode : 'icmp'> <InPorts = 2> <OutPorts = 1>
ST_1 : Operation 20 [1/1] (0.42ns)   --->   "%store_ln199 = store i8 %j_2, i8 %j" [/home/dhimiter.qendri/work/Vitis_Libraries/vision//L1/include/common/xf_infra.hpp:199]   --->   Operation 20 'store' 'store_ln199' <Predicate = (!icmp_ln199)> <Delay = 0.42>
ST_1 : Operation 21 [1/1] (0.00ns)   --->   "%br_ln199 = br void %for.body10" [/home/dhimiter.qendri/work/Vitis_Libraries/vision//L1/include/common/xf_infra.hpp:199]   --->   Operation 21 'br' 'br_ln199' <Predicate = (!icmp_ln199)> <Delay = 0.00>

State 2 <SV = 1> <Delay = 1.20>
ST_2 : Operation 22 [1/1] (0.00ns)   --->   "%sof_2 = phi i1 0, void %for.body10.split, i1 %sof_read, void %newFuncRoot"   --->   Operation 22 'phi' 'sof_2' <Predicate = true> <Delay = 0.00>
ST_2 : Operation 23 [1/1] (0.00ns)   --->   "%speclooptripcount_ln0 = speclooptripcount void @_ssdm_op_SpecLoopTripCount, i64 1, i64 128, i64 0"   --->   Operation 23 'speclooptripcount' 'speclooptripcount_ln0' <Predicate = true> <Delay = 0.00>
ST_2 : Operation 24 [1/1] (0.00ns)   --->   "%specpipeline_ln202 = specpipeline void @_ssdm_op_SpecPipeline, i32 1, i32 0, i32 0, i32 0, void @empty_4" [/home/dhimiter.qendri/work/Vitis_Libraries/vision//L1/include/common/xf_infra.hpp:202]   --->   Operation 24 'specpipeline' 'specpipeline_ln202' <Predicate = (!icmp_ln199)> <Delay = 0.00>
ST_2 : Operation 25 [1/1] (0.00ns)   --->   "%specloopname_ln194 = specloopname void @_ssdm_op_SpecLoopName, void @empty_14" [/home/dhimiter.qendri/work/Vitis_Libraries/vision//L1/include/common/xf_infra.hpp:194]   --->   Operation 25 'specloopname' 'specloopname_ln194' <Predicate = (!icmp_ln199)> <Delay = 0.00>
ST_2 : Operation 26 [1/1] (1.20ns)   --->   "%axi_data_V = read i8 @_ssdm_op_Read.ap_fifo.volatile.i8P0A, i8 %out_mat_data25" [/home/dhimiter.qendri/work/Vitis_Libraries/vision//L1/include/common/xf_structs.hpp:542]   --->   Operation 26 'read' 'axi_data_V' <Predicate = (!icmp_ln199)> <Delay = 1.20> <CoreInst = "FIFO_SRL">   --->   Core 81 'FIFO_SRL' <Latency = 0> <II = 1> <Delay = 1.83> <Storage> <Opcode : 'read' 'write' 'nbread' 'nbwrite'> <Ports = 0> <Width = 8> <Depth = 1> <FIFO>
ST_2 : Operation 27 [1/1] (0.00ns)   --->   "%write_ln258 = write void @_ssdm_op_Write.axis.volatile.i8P0A.i1P0A.i1P0A.i1P0A.i1P0A.i1P0A.i1P0A, i8 %dst_V_data_V, i1 %dst_V_keep_V, i1 %dst_V_strb_V, i1 %dst_V_user_V, i1 %dst_V_last_V, i1 %dst_V_id_V, i1 %dst_V_dest_V, i8 %axi_data_V, i1 1, i1 0, i1 %sof_2, i1 %axi_last_V, i1 0, i1 0"   --->   Operation 27 'write' 'write_ln258' <Predicate = (!icmp_ln199)> <Delay = 0.00> <CoreInst = "axis">   --->   Core 123 'axis' <Latency = 0> <II = 1> <Delay = 1.00> <Adapter> <Opcode : >
ST_2 : Operation 28 [1/1] (0.00ns)   --->   "%ret_ln0 = ret"   --->   Operation 28 'ret' 'ret_ln0' <Predicate = (icmp_ln199)> <Delay = 0.00>


============================================================
+ Verbose Summary: Timing violations
============================================================
Target clock period: 3.3ns, clock uncertainty: 0.891ns.

 <State 1>: 1.28ns
The critical path consists of the following:
	'alloca' operation ('j') [12]  (0 ns)
	'load' operation ('j', /home/dhimiter.qendri/work/Vitis_Libraries/vision//L1/include/common/xf_infra.hpp:199) on local variable 'j' [24]  (0 ns)
	'add' operation ('j', /home/dhimiter.qendri/work/Vitis_Libraries/vision//L1/include/common/xf_infra.hpp:199) [27]  (0.765 ns)
	'store' operation ('store_ln199', /home/dhimiter.qendri/work/Vitis_Libraries/vision//L1/include/common/xf_infra.hpp:199) of variable 'j', /home/dhimiter.qendri/work/Vitis_Libraries/vision//L1/include/common/xf_infra.hpp:199 on local variable 'j' [35]  (0.427 ns)
	blocking operation 0.084 ns on control path)

 <State 2>: 1.2ns
The critical path consists of the following:
	fifo read operation ('axi.data.V', /home/dhimiter.qendri/work/Vitis_Libraries/vision//L1/include/common/xf_structs.hpp:542) on port 'out_mat_data25' (/home/dhimiter.qendri/work/Vitis_Libraries/vision//L1/include/common/xf_structs.hpp:542) [33]  (1.2 ns)


============================================================
+ Verbose Summary: Binding
============================================================
N/A
* FSMD analyzer results:
  - Output states:
 - Input state : 
  - Chain level:
	State 1
	State 2


============================================================
+ Verbose Summary: Datapath Resource usage 
============================================================
N/A
